Exploratory Analysis Report
…
Top Major Account Heads

# Account Head Wise spending
budget_exp_final %>%
    group_by(year, demand_desc) %>%
    summarise(sanction = sum(sanction)) %>%
    spread(year, sanction, fill = 0) %>%
    arrange(desc(`2018-19`)) %>%
    mutate(`Total Sanction (2018-19)` = sum(`2018-19`),
           `Total Sanction (2017-18)` = sum(`2017-18`)) %>%
    mutate(`% of Expenditure (2018-19)` = percent(`2018-19`/`Total Sanction (2018-19)`),
           `% of Expenditure (2017-18)` = percent(`2017-18`/`Total Sanction (2017-18)`)) %>%
    select(demand_desc, `2018-19`, `% of Expenditure (2018-19)`, `2017-18`, `% of Expenditure (2017-18)`)

## # A tibble: 32 x 5
##    demand_desc         `2018-19` `% of Expenditure `2017-18` `% of Expenditure
##    <chr>                   <dbl> <formttbl>             <dbl> <formttbl>        
##  1 FINANCE            486955526. 30.49%                4.25e8 30.50%            
##  2 EDUCATION          225519140. 14.12%                1.99e8 14.28%            
##  3 PUBLIC WORKS  RO 163781126. 10.26%                1.42e8 10.21%            
##  4 IRRIGATION WATER  111868932. 7.01%                 1.00e8 7.20%             
##  5 SCHEDULED CASTES   87294218. 5.47%                 7.89e7 5.66%             
##  6 HEALTH AND FAMILY  78952385. 4.94%                 6.09e7 4.37%             
##  7 TRIBAL DEVELOPMENT  58640373. 3.67%                 5.26e7 3.77%             
##  8 RURAL DEVELOPMENT   56816396. 3.56%                 4.73e7 3.39%             
##  9 POLICE AND ALLIED  49849865. 3.12%                 4.22e7 3.03%             
## 10 LAND REVENUE AND   34883127. 2.18%                 3.25e7 2.33%             
## #  with 22 more rows
…
~78% of all budgetary allocation is non-plan expense, and remaning ~22% planned.

2018-19 vs 2017-18

# Overall Top 10 Investments
# Absolute change in account heads expenditure
budget_exp_final %>%
    group_by(year, demand_desc) %>%
    summarise(sanction = sum(sanction)) %>%
    spread(year, sanction, fill = 0) %>%
    mutate(delta = `2018-19` - `2017-18`,
          percent_delta = percent((`2018-19` - `2017-18`)/`2017-18`)) %>%
    arrange(desc(delta))

## # A tibble: 32 x 5
##    demand_desc                        `2017-18` `2018-19`    delta percent_delta
##    <chr>                                  <dbl>     <dbl>    <dbl> <formttbl>   
##  1 FINANCE                           425260770     4.87e8   6.17e7 14.51%       
##  2 EDUCATION                         199041424.    2.26e8   2.65e7 13.30%       
##  3 PUBLIC WORKS  ROADS BRIDGES AND 142395227.    1.64e8   2.14e7 15.02%       
##  4 HEALTH AND FAMILY WELFARE          60916054.    7.90e7   1.80e7 29.61%       
##  5 IRRIGATION WATER SUPPLY AND SANI 100391009.    1.12e8   1.15e7 11.43%       
##  6 RURAL DEVELOPMENT                  47294061.    5.68e7   9.52e6 20.13%       
##  7 SCHEDULED CASTES SUB PLAN          78862721.    8.73e7   8.43e6 10.69%       
##  8 POLICE AND ALLIED ORGANISATIONS    42242786.    4.98e7   7.61e6 18.01%       
##  9 SOCIAL JUSTICE AND EMPOWERMENT     26986133.    3.42e7   7.20e6 26.70%       
## 10 TRIBAL DEVELOPMENT                 52551901.    5.86e7   6.09e6 11.59%       
## #  with 22 more rows

# % change in account heads expenditure
budget_exp_final %>%
    group_by(year, demand_desc) %>%
    summarise(sanction = sum(sanction)) %>%
    spread(year, sanction, fill = 0) %>%
    mutate(delta = `2018-19` - `2017-18`,
          percent_delta = percent((`2018-19` - `2017-18`)/`2017-18`)) %>%
    arrange(desc(percent_delta))

## # A tibble: 32 x 5
##    demand_desc                         `2017-18` `2018-19`   delta percent_delta
##    <chr>                                   <dbl>     <dbl>   <dbl> <formttbl>   
##  1 TOURISM AND CIVIL AVIATION           2778409.  4496543.  1.72e6 61.84%       
##  2 INDUSTRIES MINERALS SUPPLIES AND I  5939393.  9073443.  3.13e6 52.77%       
##  3 AGRICULTURE                         15018567. 20131309.  5.11e6 34.04%       
##  4 HEALTH AND FAMILY WELFARE           60916054. 78952385.  1.80e7 29.61%       
##  5 VIDHAN SABHA                         1244095.  1609380.  3.65e5 29.36%       
##  6 SOCIAL JUSTICE AND EMPOWERMENT      26986133. 34190332.  7.20e6 26.70%       
##  7 RURAL DEVELOPMENT                   47294061. 56816396.  9.52e6 20.13%       
##  8 GENERAL ADMINISTRATION               6606993.  7909255.  1.30e6 19.71%       
##  9 ADMINISTRATION OF JUSTICE            7488300.  8922721.  1.43e6 19.16%       
## 10 FOREST AND WILD LIFE                16847688. 20033822.  3.19e6 18.91%       
## #  with 22 more rows

# Overall Top 10 Disinvestments
# Absolute change in account heads expenditure
budget_exp_final %>%
    group_by(year, demand_desc) %>%
    summarise(sanction = sum(sanction)) %>%
    spread(year, sanction, fill = 0) %>%
    mutate(delta = `2018-19` - `2017-18`,
          percent_delta = percent((`2018-19` - `2017-18`)/`2017-18`)) %>%
    arrange(delta)

## # A tibble: 32 x 5
##    demand_desc                        `2017-18` `2018-19`    delta percent_delta
##    <chr>                                  <dbl>     <dbl>    <dbl> <formttbl>   
##  1 LABOUR EMPLOYMENT AND TRAINING     17049464. 13095969.  -3.95e6 -23.19%      
##  2 ELECTION                            1442626    900435.  -5.42e5 -37.58%      
##  3 GOVERNOR AND COUNCIL OF MINISTERS    766558.   786007.   1.94e4 2.54%        
##  4 PRINTING AND STATIONERY              959490.  1026672.   6.72e4 7.00%        
##  5 COOPERATION                         1081426.  1212790.   1.31e5 12.15%       
##  6 VIDHAN SABHA                        1244095.  1609380.   3.65e5 29.36%       
##  7 EXCISE AND TAXATION                 2598231.  3006996.   4.09e5 15.73%       
##  8 MISCELLANEOUS GENERAL SERVICES      4672040.  5088102.   4.16e5 8.91%        
##  9 PLANNING AND BACKWARD AREA SUB-PL 11612997. 12329420.   7.16e5 6.17%        
## 10 FOOD AND CIVIL SUPPLIES             8820966.  9539710.   7.19e5 8.15%        
## #  with 22 more rows

# Absolute change in account heads expenditure
budget_exp_final %>%
    group_by(year, demand_desc) %>%
    summarise(sanction = sum(sanction)) %>%
    spread(year, sanction, fill = 0) %>%
    mutate(delta = `2018-19` - `2017-18`,
          percent_delta = percent((`2018-19` - `2017-18`)/`2017-18`)) %>%
    arrange(percent_delta)

## # A tibble: 32 x 5
##    demand_desc                        `2017-18` `2018-19`    delta percent_delta
##    <chr>                                  <dbl>     <dbl>    <dbl> <formttbl>   
##  1 ELECTION                            1442626    900435.  -5.42e5 -37.58%      
##  2 LABOUR EMPLOYMENT AND TRAINING     17049464. 13095969.  -3.95e6 -23.19%      
##  3 GOVERNOR AND COUNCIL OF MINISTERS    766558.   786007.   1.94e4 2.54%        
##  4 POWER DEVELOPMENT                  33187603. 34256813.   1.07e6 3.22%        
##  5 PLANNING AND BACKWARD AREA SUB-PL 11612997. 12329420.   7.16e5 6.17%        
##  6 PRINTING AND STATIONERY              959490.  1026672.   6.72e4 7.00%        
##  7 LAND REVENUE AND DISTRICT ADMINIS 32539338. 34883127.   2.34e6 7.20%        
##  8 FOOD AND CIVIL SUPPLIES             8820966.  9539710.   7.19e5 8.15%        
##  9 MISCELLANEOUS GENERAL SERVICES      4672040.  5088102.   4.16e5 8.91%        
## 10 SCHEDULED CASTES SUB PLAN          78862721. 87294218.   8.43e6 10.69%       
## #  with 22 more rows
…
Estimates vs Revisions

## Estimates to Revision
## 2017-18 positive absolute change
budget_exp_final %>%
    filter(year == "2017-18") %>%
    group_by(demand_desc) %>%
    summarise(sanction = sum(sanction),
              revised = sum(revised)) %>%
    mutate(revision_delta = (revised - sanction),
           percent_delta =  percent((revised - sanction)/sanction)) %>%
    arrange(desc(revision_delta))

## # A tibble: 32 x 5
##    demand_desc                    sanction  revised revision_delta percent_delta
##    <chr>                             <dbl>    <dbl>          <dbl> <formttbl>   
##  1 IRRIGATION WATER SUPPLY AND     1.00e8   1.05e8       4973045. 4.95%        
##  2 FINANCE                          4.25e8   4.30e8       4279592. 1.01%        
##  3 ROAD AND WATER TRANSPORT         9.98e6   1.34e7       3465547. 34.73%       
##  4 HEALTH AND FAMILY WELFARE        6.09e7   6.39e7       2944842. 4.83%        
##  5 PLANNING AND BACKWARD AREA S    1.16e7   1.38e7       2142094. 18.45%       
##  6 COOPERATION                      1.08e6   3.08e6       1996535. 184.62%      
##  7 TOURISM AND CIVIL AVIATION       2.78e6   4.64e6       1858901. 66.91%       
##  8 SOCIAL JUSTICE AND EMPOWERME    2.70e7   2.86e7       1607551. 5.96%        
##  9 LAND REVENUE AND DISTRICT AD    3.25e7   3.35e7        951066. 2.92%        
## 10 ELECTION                         1.44e6   2.27e6        826415. 57.29%       
## #  with 22 more rows

## 2017-18 positive percent change
budget_exp_final %>%
    filter(year == "2017-18") %>%
    group_by(demand_desc) %>%
    summarise(sanction = sum(sanction),
              revised = sum(revised)) %>%
    mutate(revision_delta = (revised - sanction),
           percent_delta =  percent((revised - sanction)/sanction)) %>%
    arrange(desc(percent_delta))

## # A tibble: 32 x 5
##    demand_desc                    sanction  revised revision_delta percent_delta
##    <chr>                             <dbl>    <dbl>          <dbl> <formttbl>   
##  1 COOPERATION                    1081426.   3.08e6       1996535. 184.62%      
##  2 TOURISM AND CIVIL AVIATION     2778409.   4.64e6       1858901. 66.91%       
##  3 ELECTION                       1442626    2.27e6        826415. 57.29%       
##  4 ROAD AND WATER TRANSPORT       9979655.   1.34e7       3465547. 34.73%       
##  5 PLANNING AND BACKWARD AREA S 11612997.   1.38e7       2142094. 18.45%       
##  6 MISCELLANEOUS GENERAL SERVIC  4672040.   5.32e6        644685. 13.80%       
##  7 GOVERNOR AND COUNCIL OF MINI   766558.   8.64e5         97415. 12.71%       
##  8 ADMINISTRATION OF JUSTICE      7488300.   8.21e6        722131. 9.64%        
##  9 PRINTING AND STATIONERY         959490.   1.05e6         88126. 9.18%        
## 10 SOCIAL JUSTICE AND EMPOWERME 26986133.   2.86e7       1607551. 5.96%        
## #  with 22 more rows

## 2017-18 negative absolute change
budget_exp_final %>%
    filter(year == "2017-18") %>%
    group_by(demand_desc) %>%
    summarise(sanction = sum(sanction),
              revised = sum(revised)) %>%
    mutate(revision_delta = (revised - sanction),
           percent_delta =  percent((revised - sanction)/sanction)) %>%
    arrange(revision_delta)

## # A tibble: 32 x 5
##    demand_desc                    sanction  revised revision_delta percent_delta
##    <chr>                             <dbl>    <dbl>          <dbl> <formttbl>   
##  1 SCHEDULED CASTES SUB PLAN        7.89e7   6.41e7     -14777631. -18.74%      
##  2 RURAL DEVELOPMENT                4.73e7   3.38e7     -13526079. -28.60%      
##  3 EDUCATION                        1.99e8   1.88e8     -10616824. -5.33%       
##  4 LABOUR EMPLOYMENT AND TRAINI    1.70e7   9.98e6      -7069090. -41.46%      
##  5 TRIBAL DEVELOPMENT               5.26e7   4.57e7      -6824920. -12.99%      
##  6 POWER DEVELOPMENT                3.32e7   2.87e7      -4442933. -13.39%      
##  7 URBAN DEVELOPMENT TOWN AND C    1.32e7   9.46e6      -3763114. -28.45%      
##  8 FOREST AND WILD LIFE             1.68e7   1.44e7      -2489395. -14.78%      
##  9 HORTICULTURE                     1.16e7   9.96e6      -1637124. -14.12%      
## 10 ANIMAL HUSBANDARY DAIRY DEVE    1.29e7   1.13e7      -1607880. -12.46%      
## #  with 22 more rows

## 2017-18 negative percent change
budget_exp_final %>%
    filter(year == "2017-18") %>%
    group_by(demand_desc) %>%
    summarise(sanction = sum(sanction),
              revised = sum(revised)) %>%
    mutate(revision_delta = (revised - sanction),
           percent_delta =  percent((revised - sanction)/sanction)) %>%
    arrange(percent_delta)

## # A tibble: 32 x 5
##    demand_desc                    sanction  revised revision_delta percent_delta
##    <chr>                             <dbl>    <dbl>          <dbl> <formttbl>   
##  1 LABOUR EMPLOYMENT AND TRAINI    1.70e7   9.98e6      -7069090. -41.46%      
##  2 RURAL DEVELOPMENT                4.73e7   3.38e7     -13526079. -28.60%      
##  3 URBAN DEVELOPMENT TOWN AND C    1.32e7   9.46e6      -3763114. -28.45%      
##  4 SCHEDULED CASTES SUB PLAN        7.89e7   6.41e7     -14777631. -18.74%      
##  5 FOREST AND WILD LIFE             1.68e7   1.44e7      -2489395. -14.78%      
##  6 HORTICULTURE                     1.16e7   9.96e6      -1637124. -14.12%      
##  7 POWER DEVELOPMENT                3.32e7   2.87e7      -4442933. -13.39%      
##  8 TRIBAL DEVELOPMENT               5.26e7   4.57e7      -6824920. -12.99%      
##  9 ANIMAL HUSBANDARY DAIRY DEVE    1.29e7   1.13e7      -1607880. -12.46%      
## 10 EDUCATION                        1.99e8   1.88e8     -10616824. -5.33%       
## #  with 22 more rows

## 2018-19 positive absolute change
budget_exp_final %>%
    filter(year == "2018-19") %>%
    group_by(demand_desc) %>%
    summarise(sanction = sum(sanction),
              revised = sum(revised)) %>%
    mutate(revision_delta = (revised - sanction),
           percent_delta =  percent((revised - sanction)/sanction)) %>%
    arrange(desc(revision_delta))

## # A tibble: 32 x 5
##    demand_desc                    sanction  revised revision_delta percent_delta
##    <chr>                             <dbl>    <dbl>          <dbl> <formttbl>   
##  1 LAND REVENUE AND DISTRICT AD    3.49e7   4.94e7      14489694. 41.54%       
##  2 FINANCE                          4.87e8   4.95e8       8382910. 1.72%        
##  3 IRRIGATION WATER SUPPLY AND     1.12e8   1.18e8       6249680. 5.59%        
##  4 POWER DEVELOPMENT                3.43e7   3.75e7       3228707. 9.43%        
##  5 MISCELLANEOUS GENERAL SERVIC    5.09e6   7.92e6       2835995. 55.74%       
##  6 FOOD AND CIVIL SUPPLIES          9.54e6   1.20e7       2421328. 25.38%       
##  7 ROAD AND WATER TRANSPORT         1.14e7   1.35e7       2130004. 18.67%       
##  8 COOPERATION                      1.21e6   2.52e6       1303385. 107.47%      
##  9 TOURISM AND CIVIL AVIATION       4.50e6   5.57e6       1077804. 23.97%       
## 10 SOCIAL JUSTICE AND EMPOWERME    3.42e7   3.52e7       1012319. 2.96%        
## #  with 22 more rows

## 2018-19 positive percent change
budget_exp_final %>%
    filter(year == "2018-19") %>%
    group_by(demand_desc) %>%
    summarise(sanction = sum(sanction),
              revised = sum(revised)) %>%
    mutate(revision_delta = (revised - sanction),
           percent_delta =  percent((revised - sanction)/sanction)) %>%
    arrange(desc(percent_delta))

## # A tibble: 32 x 5
##    demand_desc                    sanction  revised revision_delta percent_delta
##    <chr>                             <dbl>    <dbl>          <dbl> <formttbl>   
##  1 COOPERATION                      1.21e6   2.52e6       1303385. 107.47%      
##  2 ELECTION                         9.00e5   1.57e6        669693. 74.37%       
##  3 MISCELLANEOUS GENERAL SERVICES   5.09e6   7.92e6       2835995. 55.74%       
##  4 LAND REVENUE AND DISTRICT ADM   3.49e7   4.94e7      14489694. 41.54%       
##  5 FOOD AND CIVIL SUPPLIES          9.54e6   1.20e7       2421328. 25.38%       
##  6 TOURISM AND CIVIL AVIATION       4.50e6   5.57e6       1077804. 23.97%       
##  7 GOVERNOR AND COUNCIL OF MINIS   7.86e5   9.40e5        154371. 19.64%       
##  8 ROAD AND WATER TRANSPORT         1.14e7   1.35e7       2130004. 18.67%       
##  9 POWER DEVELOPMENT                3.43e7   3.75e7       3228707. 9.43%        
## 10 VIDHAN SABHA                     1.61e6   1.75e6        138939. 8.63%        
## #  with 22 more rows

## 2018-19 negative absolute change
budget_exp_final %>%
    filter(year == "2018-19") %>%
    group_by(demand_desc) %>%
    summarise(sanction = sum(sanction),
              revised = sum(revised)) %>%
    mutate(revision_delta = (revised - sanction),
           percent_delta =  percent((revised - sanction)/sanction)) %>%
    arrange(revision_delta)

## # A tibble: 32 x 5
##    demand_desc                    sanction  revised revision_delta percent_delta
##    <chr>                             <dbl>    <dbl>          <dbl> <formttbl>   
##  1 EDUCATION                        2.26e8   1.91e8     -34317557. -15.22%      
##  2 SCHEDULED CASTES SUB PLAN        8.73e7   6.82e7     -19131313. -21.92%      
##  3 PUBLIC WORKS  ROADS BRIDGES    1.64e8   1.49e8     -14856371. -9.07%       
##  4 TRIBAL DEVELOPMENT               5.86e7   4.45e7     -14115871. -24.07%      
##  5 RURAL DEVELOPMENT                5.68e7   4.29e7     -13951180. -24.55%      
##  6 HEALTH AND FAMILY WELFARE        7.90e7   6.96e7      -9347720. -11.84%      
##  7 POLICE AND ALLIED ORGANISATI    4.98e7   4.50e7      -4830868. -9.69%       
##  8 FOREST AND WILD LIFE             2.00e7   1.53e7      -4772239. -23.82%      
##  9 INDUSTRIES MINERALS SUPPLIES    9.07e6   5.03e6      -4041089. -44.54%      
## 10 AGRICULTURE                      2.01e7   1.74e7      -2732448. -13.57%      
## #  with 22 more rows

## 2018-19 negative percent change
budget_exp_final %>%
    filter(year == "2018-19") %>%
    group_by(demand_desc) %>%
    summarise(sanction = sum(sanction),
              revised = sum(revised)) %>%
    mutate(revision_delta = (revised - sanction),
           percent_delta =  percent((revised - sanction)/sanction)) %>%
    arrange(percent_delta)

## # A tibble: 32 x 5
##    demand_desc                    sanction  revised revision_delta percent_delta
##    <chr>                             <dbl>    <dbl>          <dbl> <formttbl>   
##  1 INDUSTRIES MINERALS SUPPLIES    9.07e6   5.03e6      -4041089. -44.54%      
##  2 RURAL DEVELOPMENT                5.68e7   4.29e7     -13951180. -24.55%      
##  3 TRIBAL DEVELOPMENT               5.86e7   4.45e7     -14115871. -24.07%      
##  4 FOREST AND WILD LIFE             2.00e7   1.53e7      -4772239. -23.82%      
##  5 SCHEDULED CASTES SUB PLAN        8.73e7   6.82e7     -19131313. -21.92%      
##  6 EDUCATION                        2.26e8   1.91e8     -34317557. -15.22%      
##  7 AGRICULTURE                      2.01e7   1.74e7      -2732448. -13.57%      
##  8 HEALTH AND FAMILY WELFARE        7.90e7   6.96e7      -9347720. -11.84%      
##  9 POLICE AND ALLIED ORGANISATI    4.98e7   4.50e7      -4830868. -9.69%       
## 10 EXCISE AND TAXATION              3.01e6   2.73e6       -274063. -9.11%       
## #  with 22 more rows
…
